Labs/lab5/simulation/qsim/lab5.msim.vcd
$comment
	File created using the following command:
		vcd file lab5.msim.vcd -direction
$end
$date
	Wed Mar 28 17:06:22 2018
$end
$version
	ModelSim Version 10.5b
$end
$timescale
	1ps
$end

$scope module cla_8bits_vhd_vec_tst $end
$var wire 1 ! cin $end
$var wire 1 " cout $end
$var wire 1 # sum [7] $end
$var wire 1 $ sum [6] $end
$var wire 1 % sum [5] $end
$var wire 1 & sum [4] $end
$var wire 1 ' sum [3] $end
$var wire 1 ( sum [2] $end
$var wire 1 ) sum [1] $end
$var wire 1 * sum [0] $end
$var wire 1 + x [7] $end
$var wire 1 , x [6] $end
$var wire 1 - x [5] $end
$var wire 1 . x [4] $end
$var wire 1 / x [3] $end
$var wire 1 0 x [2] $end
$var wire 1 1 x [1] $end
$var wire 1 2 x [0] $end
$var wire 1 3 y [7] $end
$var wire 1 4 y [6] $end
$var wire 1 5 y [5] $end
$var wire 1 6 y [4] $end
$var wire 1 7 y [3] $end
$var wire 1 8 y [2] $end
$var wire 1 9 y [1] $end
$var wire 1 : y [0] $end

$scope module i1 $end
$var wire 1 ; gnd $end
$var wire 1 < vcc $end
$var wire 1 = unknown $end
$var wire 1 > devoe $end
$var wire 1 ? devclrn $end
$var wire 1 @ devpor $end
$var wire 1 A ww_devoe $end
$var wire 1 B ww_devclrn $end
$var wire 1 C ww_devpor $end
$var wire 1 D ww_x [7] $end
$var wire 1 E ww_x [6] $end
$var wire 1 F ww_x [5] $end
$var wire 1 G ww_x [4] $end
$var wire 1 H ww_x [3] $end
$var wire 1 I ww_x [2] $end
$var wire 1 J ww_x [1] $end
$var wire 1 K ww_x [0] $end
$var wire 1 L ww_y [7] $end
$var wire 1 M ww_y [6] $end
$var wire 1 N ww_y [5] $end
$var wire 1 O ww_y [4] $end
$var wire 1 P ww_y [3] $end
$var wire 1 Q ww_y [2] $end
$var wire 1 R ww_y [1] $end
$var wire 1 S ww_y [0] $end
$var wire 1 T ww_cin $end
$var wire 1 U ww_sum [7] $end
$var wire 1 V ww_sum [6] $end
$var wire 1 W ww_sum [5] $end
$var wire 1 X ww_sum [4] $end
$var wire 1 Y ww_sum [3] $end
$var wire 1 Z ww_sum [2] $end
$var wire 1 [ ww_sum [1] $end
$var wire 1 \ ww_sum [0] $end
$var wire 1 ] ww_cout $end
$var wire 1 ^ \sum[0]~output_o\ $end
$var wire 1 _ \sum[1]~output_o\ $end
$var wire 1 ` \sum[2]~output_o\ $end
$var wire 1 a \sum[3]~output_o\ $end
$var wire 1 b \sum[4]~output_o\ $end
$var wire 1 c \sum[5]~output_o\ $end
$var wire 1 d \sum[6]~output_o\ $end
$var wire 1 e \sum[7]~output_o\ $end
$var wire 1 f \cout~output_o\ $end
$var wire 1 g \x[0]~input_o\ $end
$var wire 1 h \y[0]~input_o\ $end
$var wire 1 i \cin~input_o\ $end
$var wire 1 j \sum~0_combout\ $end
$var wire 1 k \x[1]~input_o\ $end
$var wire 1 l \y[1]~input_o\ $end
$var wire 1 m \sum~1_combout\ $end
$var wire 1 n \x[2]~input_o\ $end
$var wire 1 o \y[2]~input_o\ $end
$var wire 1 p \sum~2_combout\ $end
$var wire 1 q \sum~3_combout\ $end
$var wire 1 r \x[3]~input_o\ $end
$var wire 1 s \y[3]~input_o\ $end
$var wire 1 t \sum~4_combout\ $end
$var wire 1 u \x[4]~input_o\ $end
$var wire 1 v \y[4]~input_o\ $end
$var wire 1 w \sum~5_combout\ $end
$var wire 1 x \sum~6_combout\ $end
$var wire 1 y \x[5]~input_o\ $end
$var wire 1 z \y[5]~input_o\ $end
$var wire 1 { \sum~7_combout\ $end
$var wire 1 | \x[6]~input_o\ $end
$var wire 1 } \y[6]~input_o\ $end
$var wire 1 ~ \sum~8_combout\ $end
$var wire 1 !! \sum~9_combout\ $end
$var wire 1 "! \x[7]~input_o\ $end
$var wire 1 #! \y[7]~input_o\ $end
$var wire 1 $! \sum~10_combout\ $end
$var wire 1 %! \cout~0_combout\ $end
$var wire 1 &! P [7] $end
$var wire 1 '! P [6] $end
$var wire 1 (! P [5] $end
$var wire 1 )! P [4] $end
$var wire 1 *! P [3] $end
$var wire 1 +! P [2] $end
$var wire 1 ,! P [1] $end
$var wire 1 -! P [0] $end
$var wire 1 .! \ALT_INV_y[7]~input_o\ $end
$var wire 1 /! \ALT_INV_x[7]~input_o\ $end
$var wire 1 0! \ALT_INV_y[6]~input_o\ $end
$var wire 1 1! \ALT_INV_x[6]~input_o\ $end
$var wire 1 2! \ALT_INV_y[5]~input_o\ $end
$var wire 1 3! \ALT_INV_x[5]~input_o\ $end
$var wire 1 4! \ALT_INV_y[4]~input_o\ $end
$var wire 1 5! \ALT_INV_x[4]~input_o\ $end
$var wire 1 6! \ALT_INV_y[3]~input_o\ $end
$var wire 1 7! \ALT_INV_x[3]~input_o\ $end
$var wire 1 8! \ALT_INV_y[2]~input_o\ $end
$var wire 1 9! \ALT_INV_x[2]~input_o\ $end
$var wire 1 :! \ALT_INV_y[1]~input_o\ $end
$var wire 1 ;! \ALT_INV_x[1]~input_o\ $end
$var wire 1 <! \ALT_INV_cin~input_o\ $end
$var wire 1 =! \ALT_INV_y[0]~input_o\ $end
$var wire 1 >! \ALT_INV_x[0]~input_o\ $end
$var wire 1 ?! \ALT_INV_sum~9_combout\ $end
$var wire 1 @! ALT_INV_P [6] $end
$var wire 1 A! ALT_INV_P [5] $end
$var wire 1 B! ALT_INV_P [4] $end
$var wire 1 C! \ALT_INV_sum~6_combout\ $end
$var wire 1 D! \ALT_INV_sum~2_combout\ $end
$upscope $end
$upscope $end
$enddefinitions $end
#0
$dumpvars
0!
0"
0;
1<
x=
1>
1?
1@
1A
1B
1C
0T
0]
0^
0_
0`
0a
0b
0c
0d
0e
0f
0g
0h
0i
0j
0k
0l
0m
0n
0o
0p
0q
0r
0s
0t
0u
0v
0w
0x
0y
0z
0{
0|
0}
0~
0!!
0"!
0#!
0$!
0%!
1.!
1/!
10!
11!
12!
13!
14!
15!
16!
17!
18!
19!
1:!
1;!
1<!
1=!
1>!
1?!
1C!
1D!
0+
0,
0-
0.
0/
00
01
02
03
04
05
06
07
08
09
0:
0D
0E
0F
0G
0H
0I
0J
0K
0L
0M
0N
0O
0P
0Q
0R
0S
0U
0V
0W
0X
0Y
0Z
0[
0\
x&!
0'!
x(!
0)!
x*!
x+!
x,!
x-!
1@!
xA!
1B!
0#
0$
0%
0&
0'
0(
0)
0*
$end
#50000
12
13
1K
1L
1#!
1g
0>!
0.!
1$!
1j
1^
1e
1\
1U
1*
1#
#100000
02
03
11
14
0K
1J
1M
0L
0#!
1}
1k
0g
1>!
0;!
00!
1.!
1'!
0$!
0j
1m
0@!
1~
1_
0^
0e
1[
0\
0U
0*
1)
0#
1d
1V
1$
#150000
12
13
10
15
1K
1I
1N
1L
1#!
1z
1n
1g
0>!
09!
02!
0.!
1$!
1{
1q
1j
1^
1`
1c
1e
1\
1Z
1W
1U
1*
1(
1%
1#
#200000
02
03
01
04
1/
16
0K
0J
1H
1O
0M
0L
0#!
0}
1v
1r
0k
0g
1>!
1;!
07!
04!
10!
1.!
0'!
0$!
1)!
1t
0j
0m
0B!
1@!
0~
1w
0_
0^
1a
0e
0[
0\
1Y
0U
0*
0)
1'
0#
1b
0d
1X
0V
1&
0$
#250000
12
13
1.
17
1K
1G
1P
1L
1#!
1s
1u
1g
0>!
05!
06!
0.!
1$!
0t
0w
1x
0)!
0{
1~
1!!
1j
0?!
1B!
0C!
1w
1^
1d
0c
0b
0a
1e
1\
1V
0W
0X
0Y
1U
1*
0'
0&
0%
1$
1#
1b
1X
1&
#300000
02
03
11
14
00
05
1-
18
0K
1J
0I
1F
1Q
0N
1M
0L
0#!
1}
0z
1o
1y
0n
1k
0g
1>!
0;!
19!
03!
08!
12!
00!
1.!
1'!
0j
1m
0@!
0~
1_
0^
1[
0\
0*
1)
0d
0V
0$
#350000
12
13
1,
19
1K
1E
1R
1L
1#!
1l
1|
1g
0>!
01!
0:!
0.!
0'!
0$!
1%!
1j
0m
1p
0D!
1@!
1~
0q
1t
0_
1^
1f
0e
0[
1\
1]
0U
1*
0)
0#
1"
1a
0`
1d
1Y
0Z
1V
0(
1'
1$
#400000
02
03
01
04
0/
06
1+
1:
0K
0J
0H
1D
1S
0O
0M
0L
0#!
0}
0v
1h
1"!
0r
0k
0g
1>!
1;!
17!
0/!
0=!
14!
10!
1.!
1'!
1)!
0t
1m
0p
1D!
0B!
0@!
0~
1q
1t
0x
1C!
1_
0a
1{
1~
0!!
1[
0Y
1?!
1)
0'
1a
1`
0d
1$!
0%!
1Y
1Z
0V
1(
1'
0$
1d
1c
1V
1W
1%
1$
0f
1e
0]
1U
0"
1#
#450000
12
13
10
15
1K
1I
1N
1L
1#!
1z
1n
1g
0>!
09!
02!
0.!
0$!
1%!
0{
0~
1!!
0q
0t
0w
1x
0j
0m
1p
0D!
0C!
0?!
1$!
1{
1q
0_
0^
0b
0a
0`
0d
0c
1f
0e
0[
0\
0X
0Y
0Z
0V
0W
1]
0U
0*
0)
0(
0'
0&
0%
0$
0#
1"
1`
1c
1e
1Z
1W
1U
1(
1%
1#
#500000
02
03
11
14
0.
07
0K
1J
0G
0P
1M
0L
0#!
1}
0s
0u
1k
0g
1>!
0;!
15!
16!
00!
1.!
0'!
0$!
1t
1w
0x
0)!
0{
1j
1B!
1C!
1@!
1~
0w
1^
0c
1b
1a
0e
1\
0W
1X
1Y
0U
1*
1'
1&
0%
0#
0b
1d
0X
1V
0&
1$
#550000
12
13
1K
1L
1#!
1g
0>!
0.!
1$!
0j
1m
1_
0^
1e
1[
0\
1U
0*
1)
1#
#600000
02
03
01
04
00
05
1/
16
0-
08
0K
0J
0I
1H
0F
0Q
1O
0N
0M
0L
0#!
0}
0z
1v
0o
0y
1r
0n
0k
0g
1>!
1;!
19!
07!
13!
18!
04!
12!
10!
1.!
1'!
0$!
1)!
0~
0!!
1j
0p
1D!
1?!
0B!
0@!
1~
1$!
0%!
0q
1w
1^
0d
0e
1\
0V
0U
1*
0$
0#
1b
0`
0f
1e
1d
1X
0Z
0]
1U
1V
0(
1&
1$
1#
0"
#650000
12
13
1K
1L
1#!
1g
0>!
0.!
0$!
1%!
0j
0m
1p
0D!
1q
0_
0^
1f
0e
0[
0\
1]
0U
0*
0)
0#
1"
1`
1Z
1(
#700000
02
03
11
14
0,
09
0K
1J
0E
0R
1M
0L
0#!
1}
0l
0|
1k
0g
1>!
0;!
11!
1:!
00!
1.!
1$!
0%!
1j
1m
0p
1D!
0q
1_
1^
0f
1e
1[
1\
0]
1U
1*
1)
1#
0"
0`
0Z
0(
#750000
12
13
10
15
1.
17
1K
1I
1G
1P
1N
1L
1#!
1z
1s
1u
1n
1g
0>!
09!
05!
06!
02!
0.!
0$!
1%!
0)!
0~
1!!
1q
0t
0w
1x
0j
0m
1p
0D!
0C!
0?!
1B!
1$!
0q
1t
1w
0_
0^
0b
0a
1`
0d
1f
0e
0[
0\
0X
0Y
1Z
0V
1]
0U
0*
0)
1(
0'
0&
0$
0#
1"
1b
1a
0`
1e
1X
1Y
0Z
1U
0(
1'
1&
1#
