Labs/lab6/parte1/simulation/qsim/parte1.msim.vcd
$comment
	File created using the following command:
		vcd file parte1.msim.vcd -direction
$end
$date
	Wed Apr 11 13:33:43 2018
$end
$version
	ModelSim Version 10.5b
$end
$timescale
	1ps
$end

$scope module latches_ffs_vhd_vec_tst $end
$var wire 1 ! A $end
$var wire 1 " B $end
$var wire 1 # clear $end
$var wire 1 $ clock $end
$var wire 1 % preset $end
$var wire 1 & Q [1] $end
$var wire 1 ' Q [2] $end
$var wire 1 ( Q [3] $end
$var wire 1 ) Q [4] $end
$var wire 1 * Q [5] $end
$var wire 1 + Q [6] $end

$scope module i1 $end
$var wire 1 , gnd $end
$var wire 1 - vcc $end
$var wire 1 . unknown $end
$var wire 1 / devoe $end
$var wire 1 0 devclrn $end
$var wire 1 1 devpor $end
$var wire 1 2 ww_devoe $end
$var wire 1 3 ww_devclrn $end
$var wire 1 4 ww_devpor $end
$var wire 1 5 ww_clock $end
$var wire 1 6 ww_preset $end
$var wire 1 7 ww_clear $end
$var wire 1 8 ww_A $end
$var wire 1 9 ww_B $end
$var wire 1 : ww_Q [1] $end
$var wire 1 ; ww_Q [2] $end
$var wire 1 < ww_Q [3] $end
$var wire 1 = ww_Q [4] $end
$var wire 1 > ww_Q [5] $end
$var wire 1 ? ww_Q [6] $end
$var wire 1 @ \Q[6]~output_o\ $end
$var wire 1 A \Q[5]~output_o\ $end
$var wire 1 B \Q[4]~output_o\ $end
$var wire 1 C \Q[3]~output_o\ $end
$var wire 1 D \Q[2]~output_o\ $end
$var wire 1 E \Q[1]~output_o\ $end
$var wire 1 F \A~input_o\ $end
$var wire 1 G \B~input_o\ $end
$var wire 1 H \lff1|Q~0_combout\ $end
$var wire 1 I \clock~input_o\ $end
$var wire 1 J \clear~input_o\ $end
$var wire 1 K \preset~input_o\ $end
$var wire 1 L \lff6|x~q\ $end
$var wire 1 M \lff6|x~0_combout\ $end
$var wire 1 N \lff6|Q~q\ $end
$var wire 1 O \lff2|sr_geted|Q~0_combout\ $end
$var wire 1 P \lff4|x~0_combout\ $end
$var wire 1 Q \lff4|Q~q\ $end
$var wire 1 R \lff5|x~q\ $end
$var wire 1 S \lff5|x~0_combout\ $end
$var wire 1 T \lff5|Q~q\ $end
$var wire 1 U \lff3|Q~combout\ $end
$var wire 1 V \lff5|ALT_INV_x~q\ $end
$var wire 1 W \lff2|sr_geted|ALT_INV_Q~0_combout\ $end
$var wire 1 X \lff6|ALT_INV_x~q\ $end
$var wire 1 Y \lff1|ALT_INV_Q~0_combout\ $end
$var wire 1 Z \lff3|ALT_INV_Q~combout\ $end
$var wire 1 [ \ALT_INV_clock~input_o\ $end
$var wire 1 \ \ALT_INV_preset~input_o\ $end
$var wire 1 ] \ALT_INV_clear~input_o\ $end
$var wire 1 ^ \ALT_INV_B~input_o\ $end
$var wire 1 _ \ALT_INV_A~input_o\ $end
$upscope $end
$upscope $end
$enddefinitions $end
#0
$dumpvars
1!
1"
1#
0$
1%
0,
1-
x.
1/
10
11
12
13
14
05
16
17
18
19
1@
0A
xB
0C
0D
xE
1F
1G
0H
0I
1J
1K
0L
0M
0N
xO
0P
0Q
0R
0S
0T
xU
1V
xW
1X
1Y
xZ
1[
0\
0]
0^
0_
x:
0;
0<
x=
0>
1?
x&
0'
0(
x)
0*
1+
$end
#10000
0!
0#
0%
08
07
06
0K
0J
0F
1_
1]
1\
1H
0Y
0@
0?
0+
#20000
0"
09
0G
1^
#30000
1"
19
1G
0^
#40000
0"
09
0G
1^
#50000
1!
18
1F
0_
0H
1M
1P
1S
1Y
1@
1?
1+
#60000
0!
08
0F
1_
0M
0P
0S
#90000
1!
1%
18
16
1K
1F
0_
0\
1M
1P
1S
#100000
0%
1$
06
15
1I
0K
1\
0[
1L
1N
1Q
1R
1T
0O
1U
0V
0X
0Z
1W
0M
1D
1C
1A
1E
1;
1<
1>
1B
1:
1*
1(
1'
1=
1&
1)
#110000
1"
19
1G
0^
0S
#120000
0"
1%
09
16
1K
0G
1^
0\
1M
1S
#130000
1"
0%
19
06
0K
1G
0^
1\
0M
0S
#140000
0"
0!
1#
09
08
17
1J
0F
0G
1^
1_
0]
0P
0U
1Z
0E
0:
0&
#150000
0#
07
0J
1]
1M
1S
#160000
1"
19
1G
0^
1H
1O
0S
0W
0Y
0@
0B
0?
0=
0+
0)
#170000
0"
09
0G
1^
1S
#190000
1!
18
1F
0_
0H
0M
0O
1P
1U
0Z
1W
1Y
1E
1@
1B
1:
1?
1=
1&
1+
1)
#200000
1"
0$
19
05
0I
1G
0^
1[
0S
#210000
0!
08
0F
1_
1H
1M
0P
0Y
0@
0?
0+
#220000
0"
09
0G
1^
1S
#240000
1!
18
1F
0_
0H
0M
1P
1Y
1@
1?
1+
#250000
0!
08
0F
1_
1M
0P
#290000
1!
18
1F
0_
0M
1P
#300000
0!
1"
1$
08
19
15
1I
1G
0F
1_
0^
0[
0L
0N
1H
1M
1O
0P
0S
0U
1X
1Z
0W
0Y
0M
0A
0E
0>
0@
0B
0:
0*
0?
0=
0&
0+
0)
#310000
0"
09
0G
1^
1S
#320000
1!
18
1F
0_
0H
1M
0O
1P
1U
0Z
1W
1Y
1E
1@
1B
1:
1?
1=
1&
1+
1)
#325000
1"
19
1G
0^
0S
#330000
0"
0!
09
08
0F
0G
1^
1_
0M
0P
0U
1S
1Z
0E
0:
0&
#335000
1"
19
1G
0^
1H
1O
0S
0W
0Y
0@
0B
0?
0=
0+
0)
#340000
0"
1!
09
18
1F
0G
1^
0_
1M
1P
1U
0H
0O
1S
1W
1Y
0Z
1E
1@
1B
1:
1?
1=
1&
1+
1)
#345000
1"
19
1G
0^
0S
#350000
0"
0!
09
08
0F
0G
1^
1_
0M
0P
0U
1S
1Z
0E
0:
0&
#355000
1"
19
1G
0^
1H
1O
0S
0W
0Y
0@
0B
0?
0=
0+
0)
#360000
0"
1!
09
18
1F
0G
1^
0_
1M
1P
1U
0H
0O
1S
1W
1Y
0Z
1E
1@
1B
1:
1?
1=
1&
1+
1)
#365000
1"
19
1G
0^
0S
#370000
0"
0!
09
08
0F
0G
1^
1_
0M
0P
0U
1S
1Z
0E
0:
0&
#375000
1"
19
1G
0^
1H
1O
0S
0W
0Y
0@
0B
0?
0=
0+
0)
#380000
0"
1!
09
18
1F
0G
1^
0_
1M
1P
1U
0H
0O
1S
1W
1Y
0Z
1E
1@
1B
1:
1?
1=
1&
1+
1)
#385000
1"
19
1G
0^
0S
#390000
0"
0!
09
08
0F
0G
1^
1_
0M
0P
0U
1S
1Z
0E
0:
0&
#395000
1"
19
1G
0^
1H
1O
0S
0W
0Y
0@
0B
0?
0=
0+
0)
#400000
0"
1!
0$
09
18
05
0I
1F
0G
1^
0_
1[
1M
1P
0H
1S
1Y
1@
1?
1+
#405000
1"
19
1G
0^
0S
#410000
0"
0!
09
08
0F
0G
1^
1_
0M
0P
1S
#415000
1"
19
1G
0^
1H
0S
0Y
0@
0?
0+
#420000
0"
1!
09
18
1F
0G
1^
0_
1M
1P
0H
1S
1Y
1@
1?
1+
#425000
1"
19
1G
0^
0S
#430000
0"
0!
09
08
0F
0G
1^
1_
0M
0P
1S
#435000
1"
19
1G
0^
1H
0S
0Y
0@
0?
0+
#440000
0"
1!
09
18
1F
0G
1^
0_
1M
1P
0H
1S
1Y
1@
1?
1+
#445000
1"
19
1G
0^
0S
#450000
0"
0!
09
08
0F
0G
1^
1_
0M
0P
1S
#455000
1"
19
1G
0^
1H
0S
0Y
0@
0?
0+
#460000
0"
1!
09
18
1F
0G
1^
0_
1M
1P
0H
1S
1Y
1@
1?
1+
#465000
1"
19
1G
0^
0S
#470000
0"
0!
09
08
0F
0G
1^
1_
0M
0P
1S
#475000
1"
19
1G
0^
1H
0S
0Y
0@
0?
0+
#480000
0"
1!
09
18
1F
0G
1^
0_
1M
1P
0H
1S
1Y
1@
1?
1+
#485000
1"
19
1G
0^
0S
#490000
0"
0!
09
08
0F
0G
1^
1_
0M
0P
1S
#495000
1"
19
1G
0^
1H
0S
0Y
0@
0?
0+
#500000
0"
1!
1$
09
18
15
1I
1F
0G
1^
0_
0[
0Q
0R
0T
1M
1P
1U
0H
0O
1S
1V
1W
1Y
0Z
0D
0C
1E
0;
0<
1@
1B
1:
0(
0'
1?
1=
1&
1+
1)
#505000
1"
19
1G
0^
#510000
0"
0!
09
08
0F
0G
1^
1_
0M
0P
0U
0S
1Z
0E
0:
0&
#515000
1"
19
1G
0^
1H
1O
0W
0Y
0@
0B
0?
0=
0+
0)
#520000
0"
09
0G
1^
#525000
1"
19
1G
0^
#530000
0"
09
0G
1^
#535000
1"
19
1G
0^
#540000
0"
1!
09
18
1F
0G
1^
0_
1M
1P
1U
0H
0O
1S
1W
1Y
0Z
1E
1@
1B
1:
1?
1=
1&
1+
1)
#545000
1"
19
1G
0^
#550000
0"
0!
09
08
0F
0G
1^
1_
0M
0P
0U
0S
1Z
0E
0:
0&
#555000
1"
19
1G
0^
1H
1O
0W
0Y
0@
0B
0?
0=
0+
0)
#560000
0"
1!
09
18
1F
0G
1^
0_
1M
1P
1U
0H
0O
1S
1W
1Y
0Z
1E
1@
1B
1:
1?
1=
1&
1+
1)
#565000
1"
19
1G
0^
#570000
0"
0!
09
08
0F
0G
1^
1_
0M
0P
0U
0S
1Z
0E
0:
0&
#575000
1"
19
1G
0^
1H
1O
0W
0Y
0@
0B
0?
0=
0+
0)
#580000
0"
1!
09
18
1F
0G
1^
0_
1M
1P
1U
0H
0O
1S
1W
1Y
0Z
1E
1@
1B
1:
1?
1=
1&
1+
1)
#585000
1"
19
1G
0^
#590000
0"
0!
09
08
0F
0G
1^
1_
0M
0P
0U
0S
1Z
0E
0:
0&
#595000
1"
19
1G
0^
1H
1O
0W
0Y
0@
0B
0?
0=
0+
0)
#600000
0"
1!
0$
09
18
05
0I
1F
0G
1^
0_
1[
1M
1P
0H
1S
1Y
1@
1?
1+
#605000
1"
19
1G
0^
#610000
0"
0!
09
08
0F
0G
1^
1_
0M
0P
0S
#615000
1"
19
1G
0^
1H
0Y
0@
0?
0+
#620000
0"
1!
09
18
1F
0G
1^
0_
1M
1P
0H
1S
1Y
1@
1?
1+
#625000
1"
19
1G
0^
#630000
0"
0!
09
08
0F
0G
1^
1_
0M
0P
0S
#635000
1"
19
1G
0^
1H
0Y
0@
0?
0+
#640000
0"
1!
09
18
1F
0G
1^
0_
1M
1P
0H
1S
1Y
1@
1?
1+
#645000
1"
19
1G
0^
#650000
0"
0!
09
08
0F
0G
1^
1_
0M
0P
0S
#655000
1"
19
1G
0^
1H
0Y
0@
0?
0+
#660000
0"
1!
09
18
1F
0G
1^
0_
1M
1P
0H
1S
1Y
1@
1?
1+
#665000
1"
19
1G
0^
#670000
0"
0!
09
08
0F
0G
1^
1_
0M
0P
0S
#675000
1"
19
1G
0^
1H
0Y
0@
0?
0+
#680000
0"
09
0G
1^
#685000
1"
19
1G
0^
#690000
0"
09
0G
1^
#695000
1"
19
1G
0^
#700000
0"
1$
09
15
1I
0G
1^
0[
