Labs/lab8/parte1/simulation/qsim/lab8p1.msim.vcd
$comment
	File created using the following command:
		vcd file lab8p1.msim.vcd -direction
$end
$date
	Mon Apr 23 15:38:08 2018
$end
$version
	ModelSim Version 10.5b
$end
$timescale
	1ps
$end

$scope module fsm_seq_vhd_vec_tst $end
$var wire 1 ! clock $end
$var wire 1 " reset $end
$var wire 1 # w $end
$var wire 1 $ z $end

$scope module i1 $end
$var wire 1 % gnd $end
$var wire 1 & vcc $end
$var wire 1 ' unknown $end
$var wire 1 ( devoe $end
$var wire 1 ) devclrn $end
$var wire 1 * devpor $end
$var wire 1 + ww_devoe $end
$var wire 1 , ww_devclrn $end
$var wire 1 - ww_devpor $end
$var wire 1 . ww_clock $end
$var wire 1 / ww_reset $end
$var wire 1 0 ww_w $end
$var wire 1 1 ww_z $end
$var wire 1 2 \z~output_o\ $end
$var wire 1 3 \clock~input_o\ $end
$var wire 1 4 \reset~input_o\ $end
$var wire 1 5 \w~input_o\ $end
$var wire 1 6 \y~14_combout\ $end
$var wire 1 7 \y.B~q\ $end
$var wire 1 8 \y~13_combout\ $end
$var wire 1 9 \y.C~q\ $end
$var wire 1 : \y~12_combout\ $end
$var wire 1 ; \y.D~q\ $end
$var wire 1 < \y~11_combout\ $end
$var wire 1 = \y.E~q\ $end
$var wire 1 > \ALT_INV_y.D~q\ $end
$var wire 1 ? \ALT_INV_y.E~q\ $end
$var wire 1 @ \ALT_INV_y.C~q\ $end
$var wire 1 A \ALT_INV_w~input_o\ $end
$var wire 1 B \ALT_INV_reset~input_o\ $end
$var wire 1 C \ALT_INV_y.B~q\ $end
$upscope $end
$upscope $end
$enddefinitions $end
#0
$dumpvars
0!
0"
0#
0$
0%
1&
x'
1(
1)
1*
1+
1,
1-
0.
0/
00
01
02
03
04
05
16
07
08
09
0:
0;
0<
0=
1>
1?
1@
1A
1B
1C
$end
#5000
1#
10
15
0A
06
#10000
1!
1.
13
#20000
0!
0.
03
#25000
0#
00
05
1A
16
#30000
1#
1!
10
1.
13
15
0A
17
06
0C
18
#40000
0!
0.
03
#45000
0#
00
05
1A
16
08
#50000
1!
1.
13
#55000
1#
10
15
0A
06
18
#60000
0#
0!
00
0.
03
05
1A
16
08
#70000
1!
1.
13
#75000
1#
10
15
0A
06
18
#80000
0#
0!
00
0.
03
05
1A
16
08
#85000
1#
10
15
0A
06
18
#90000
1!
1.
13
07
19
0@
1C
08
#100000
0!
0#
0.
00
05
03
1A
1:
#105000
1#
10
15
0A
0:
#110000
0#
1!
00
1.
13
05
1A
09
1:
1@
16
0:
#115000
1#
10
15
0A
06
#120000
0!
0.
03
#125000
0#
00
05
1A
16
#130000
1!
1.
13
17
0C
#135000
1#
10
15
0A
06
18
#140000
0#
0!
00
0.
03
05
1A
16
08
#145000
1#
10
15
0A
06
18
#150000
0#
1!
00
1.
13
05
1A
07
19
16
08
0@
1C
06
1:
#155000
1#
10
15
0A
0:
#160000
0#
0!
00
0.
03
05
1A
1:
#170000
1!
1.
13
09
1;
0>
1@
16
0:
#180000
0!
0.
03
#185000
1#
10
15
0A
06
1<
#190000
0#
1!
00
1.
13
05
1A
0;
1=
16
0<
0?
1>
06
1:
12
11
1$
#195000
1#
10
15
0A
0:
#200000
0#
0!
00
0.
03
05
1A
1:
#205000
1#
10
15
0A
0:
#210000
0#
1!
00
1.
13
05
1A
0=
1:
1?
16
0:
02
01
0$
#220000
0!
0.
03
#230000
1!
1.
13
17
0C
#240000
0!
1#
0.
10
15
03
0A
06
18
#250000
1!
0#
1.
00
05
13
1A
07
19
16
08
0@
1C
06
1:
#260000
0!
0.
03
#270000
1!
1#
1.
10
15
13
0A
09
1;
0:
0>
1@
1<
#275000
0#
00
05
1A
16
0<
#280000
1#
0!
10
0.
03
15
0A
06
1<
#290000
0#
1!
00
1.
13
05
1A
0;
1=
16
0<
0?
1>
06
1:
12
11
1$
#295000
1#
10
15
0A
0:
#300000
0#
0!
00
0.
03
05
1A
1:
#305000
1#
10
15
0A
0:
#310000
0#
1!
00
1.
13
05
1A
0=
1:
1?
16
0:
02
01
0$
#320000
1#
0!
10
0.
03
15
0A
06
#325000
0#
00
05
1A
16
#330000
1!
1.
13
17
0C
#340000
0!
1#
0.
10
15
03
0A
06
18
#350000
1!
1.
13
07
19
0@
1C
08
#355000
0#
00
05
1A
1:
#360000
0!
0.
03
#365000
1#
10
15
0A
0:
#370000
0#
1!
00
1.
13
05
1A
09
1:
1@
16
0:
#380000
1#
0!
10
0.
03
15
0A
06
#390000
0#
1!
00
1.
13
05
1A
16
#400000
0!
0.
03
#410000
1!
1.
13
17
0C
#420000
0!
0.
03
#425000
1#
10
15
0A
06
18
#430000
1!
1.
13
07
19
0@
1C
08
#435000
0#
00
05
1A
1:
#440000
0!
0.
03
#450000
1!
1#
1.
10
15
13
0A
09
1;
0:
0>
1@
1<
#455000
0#
00
05
1A
16
0<
#460000
1#
0!
10
0.
03
15
0A
06
1<
#470000
0#
1!
00
1.
13
05
1A
0;
1=
16
0<
0?
1>
06
1:
12
11
1$
#480000
0!
0.
03
#490000
1!
1.
13
1;
0=
1?
0>
16
0:
02
01
0$
#500000
0!
0.
03
#505000
1#
10
15
0A
06
1<
#510000
0#
1!
00
1.
13
05
1A
0;
1=
16
0<
0?
1>
06
1:
12
11
1$
#520000
1#
0!
10
0.
03
15
0A
0:
#530000
0#
1!
00
1.
13
05
1A
0=
1:
1?
16
0:
02
01
0$
#540000
0!
0.
03
#545000
1#
10
15
0A
06
#550000
0#
1!
00
1.
13
05
1A
16
#555000
1#
10
15
0A
06
#560000
0#
0!
00
0.
03
05
1A
16
#565000
1#
10
15
0A
06
#570000
0#
1!
00
1.
13
05
1A
16
#575000
1#
10
15
0A
06
#580000
0!
0.
03
#585000
0#
00
05
1A
16
#590000
1#
1!
10
1.
13
15
0A
17
06
0C
18
#600000
0#
0!
00
0.
03
05
1A
16
08
#610000
1!
1.
13
#620000
0!
1#
0.
10
15
03
0A
06
18
#625000
0#
00
05
1A
16
08
#630000
1!
1.
13
#640000
0!
1#
0.
10
15
03
0A
06
18
#645000
0#
00
05
1A
16
08
#650000
1!
1.
13
#660000
0!
0.
03
#665000
1#
10
15
0A
06
18
#670000
1!
1.
13
07
19
0@
1C
08
#680000
0!
0#
0.
00
05
03
1A
1:
#690000
1!
1.
13
09
1;
0>
1@
16
0:
#700000
0!
0.
03
#710000
1!
1.
13
17
0;
1>
0C
#715000
1#
10
15
0A
06
18
#720000
0#
0!
00
0.
03
05
1A
16
08
#725000
1#
10
15
0A
06
18
#730000
0#
1!
00
1.
13
05
1A
07
19
16
08
0@
1C
06
1:
#735000
1#
10
15
0A
0:
#740000
0#
0!
00
0.
03
05
1A
1:
#745000
1#
10
15
0A
0:
#750000
1!
1.
13
09
1@
#760000
0!
0#
0.
00
05
03
1A
16
#770000
1!
1#
1.
10
15
13
0A
17
06
0C
18
#780000
0!
0.
03
#785000
0#
00
05
1A
16
08
#790000
1!
1.
13
#800000
0!
1#
0.
10
15
03
0A
06
18
#810000
1!
1.
13
07
19
0@
1C
08
#815000
0#
00
05
1A
1:
#820000
0!
1"
0.
1/
14
03
0B
0:
#830000
1!
1.
13
09
1@
#835000
1#
10
15
0A
#840000
0!
0.
03
#845000
0#
00
05
1A
#850000
1#
1!
10
1.
13
15
0A
#855000
0#
00
05
1A
#860000
0!
0.
03
#865000
1#
10
15
0A
#870000
1!
1.
13
#880000
0!
0.
03
#890000
1!
1.
13
#895000
0#
00
05
1A
#900000
1#
0!
10
0.
03
15
0A
#905000
0#
00
05
1A
#910000
1#
1!
10
1.
13
15
0A
#915000
0#
00
05
1A
#920000
1#
0!
10
0.
03
15
0A
#925000
0#
00
05
1A
#930000
1#
1!
10
1.
13
15
0A
#935000
0#
00
05
1A
#940000
1#
0!
0"
10
0.
0/
04
03
15
0A
1B
#950000
0#
1!
00
1.
13
05
1A
16
#960000
0!
0.
03
#970000
1!
1.
13
17
0C
#975000
1#
10
15
0A
06
18
#980000
0!
0.
03
#990000
1!
1.
13
07
19
0@
1C
08
